…
    ## Warning in mask$eval_all_mutate(quo): NAs introduced by coercion

``` r
homicide_df
```

    ## # A tibble: 39,693 × 14
    ##    uid   repor…¹ victi…² victi…³ victi…⁴ victi…⁵ victi…⁶ city  state   lat   lon
    ##    <chr>   <dbl> <chr>   <chr>   <chr>     <dbl> <chr>   <chr> <chr> <dbl> <dbl>
    ##  1 Alb-…  2.01e7 SATTER… VIVIANA White        15 Female  Albu… NM     35.1 -107.
    ##  2 Alb-…  2.01e7 MULA    VIVIAN  White        72 Female  Albu… NM     35.1 -107.
    ##  3 Alb-…  2.01e7 BOOK    GERALD… White        91 Female  Albu… NM     35.2 -107.
    ##  4 Alb-…  2.01e7 MARTIN… GUSTAVO White        56 Male    Albu… NM     35.1 -107.
    ##  5 Alb-…  2.01e7 LUJAN   KEVIN   White        NA Male    Albu… NM     35.1 -107.
    ##  6 Alb-…  2.01e7 GRAY    STEFAN… White        43 Female  Albu… NM     35.1 -107.
    ##  7 Alb-…  2.01e7 DAVID   LARRY   White        52 Male    Albu… NM     NA     NA 
    ##  8 Alb-…  2.01e7 BRITO   ELIZAB… White        22 Female  Albu… NM     35.1 -107.
    ##  9 Alb-…  2.01e7 KING    TEVION  Black        15 Male    Albu… NM     35.1 -107.
    ## 10 Alb-…  2.01e7 BOYKIN  CEDRIC  Black        25 Male    Albu… NM     35.1 -107.
    ## # … with 39,683 more rows, 3 more variables: disposition <chr>,
    ## #   city_state <chr>, homicide_situation <dbl>, and abbreviated variable names
    ## #   ¹​reported_date, ²​victim_last, ³​victim_first, ⁴​victim_race, ⁵​victim_age,
    ## #   ⁶​victim_sex
…
fit_logistic_all
```

    ## # A tibble: 47 × 4
    ##    city_state         OR lower_bound upper_bound
    ##    <chr>           <dbl>       <dbl>       <dbl>
    ##  1 Albuquerque, NM 1.63        0.781       3.39 
    ##  2 Atlanta, GA     0.979       0.671       1.43 
    ##  3 Baltimore, MD   0.381       0.292       0.496
    ##  4 Baton Rouge, LA 0.363       0.200       0.657
    ##  5 Birmingham, AL  0.873       0.577       1.32 
    ##  6 Boston, MA      0.446       0.250       0.797
    ##  7 Buffalo, NY     0.484       0.272       0.861
    ##  8 Charlotte, NC   0.846       0.535       1.34 
    ##  9 Chicago, IL     0.397       0.325       0.484
    ## 10 Cincinnati, OH  0.345       0.206       0.578
    ## # … with 37 more rows
…
    ## Rows: 4342 Columns: 20
    ## ── Column specification ────────────────────────────────────────────────────────
    ## Delimiter: ","
    ## dbl (20): babysex, bhead, blength, bwt, delwt, fincome, frace, gaweeks, malf...
    ## 
    ## ℹ Use `spec()` to retrieve the full column specification for this data.
    ## ℹ Specify the column types or set `show_col_types = FALSE` to quiet this message.

``` r
birthweight
```

    ## # A tibble: 4,342 × 20
    ##    babysex bhead blength   bwt delwt fincome frace gaweeks malform menarche
    ##    <fct>   <dbl>   <dbl> <dbl> <dbl>   <dbl> <fct>   <dbl> <fct>      <dbl>
    ##  1 2          34      51  3629   177      35 1        39.9 0             13
    ##  2 1          34      48  3062   156      65 2        25.9 0             14
    ##  3 2          36      50  3345   148      85 1        39.9 0             12
    ##  4 1          34      52  3062   157      55 1        40   0             14
    ##  5 2          34      52  3374   156       5 1        41.6 0             13
    ##  6 1          33      52  3374   129      55 1        40.7 0             12
    ##  7 2          33      46  2523   126      96 2        40.3 0             14
    ##  8 2          33      49  2778   140       5 1        37.4 0             12
    ##  9 1          36      52  3515   146      85 1        40.3 0             11
    ## 10 1          33      50  3459   169      75 2        40.7 0             12
    ## # … with 4,332 more rows, and 10 more variables: mheight <dbl>, momage <dbl>,
    ## #   mrace <fct>, parity <dbl>, pnumlbw <dbl>, pnumsga <dbl>, ppbmi <dbl>,
    ## #   ppwt <dbl>, smoken <dbl>, wtgain <dbl>
…
    ## Warning in predict.lm(model, data): prediction from a rank-deficient fit may be
    ## misleading

    ## Warning in predict.lm(model, data): prediction from a rank-deficient fit may be
    ## misleading

``` r
birthweight
```

    ## # A tibble: 4,342 × 22
    ##    babysex bhead blength   bwt delwt fincome frace gaweeks malform menarche
    ##    <fct>   <dbl>   <dbl> <dbl> <dbl>   <dbl> <fct>   <dbl> <fct>      <dbl>
    ##  1 2          34      51  3629   177      35 1        39.9 0             13
    ##  2 1          34      48  3062   156      65 2        25.9 0             14
    ##  3 2          36      50  3345   148      85 1        39.9 0             12
    ##  4 1          34      52  3062   157      55 1        40   0             14
    ##  5 2          34      52  3374   156       5 1        41.6 0             13
    ##  6 1          33      52  3374   129      55 1        40.7 0             12
    ##  7 2          33      46  2523   126      96 2        40.3 0             14
    ##  8 2          33      49  2778   140       5 1        37.4 0             12
    ##  9 1          36      52  3515   146      85 1        40.3 0             11
    ## 10 1          33      50  3459   169      75 2        40.7 0             12
    ## # … with 4,332 more rows, and 12 more variables: mheight <dbl>, momage <dbl>,
    ## #   mrace <fct>, parity <dbl>, pnumlbw <dbl>, pnumsga <dbl>, ppbmi <dbl>,
    ## #   ppwt <dbl>, smoken <dbl>, wtgain <dbl>, pred <dbl>, resid <dbl>
…
    ## Warning in predict.lm(model, data): prediction from a rank-deficient fit may be
    ## misleading

    ## Warning in predict.lm(model, data): prediction from a rank-deficient fit may be
    ## misleading

    ## Warning in predict.lm(model, data): prediction from a rank-deficient fit may be
    ## misleading

``` r
cv_df 
```

    ## # A tibble: 100 × 9
    ##    train    test     .id   model1 model2 model_fit rmse_model1 rmse_mo…¹ rmse_…²
    ##    <list>   <list>   <chr> <list> <list> <list>          <dbl>     <dbl>   <dbl>
    ##  1 <tibble> <tibble> 001   <lm>   <lm>   <lm>             357.      297.    312.
    ##  2 <tibble> <tibble> 002   <lm>   <lm>   <lm>             322.      278.    309.
    ##  3 <tibble> <tibble> 003   <lm>   <lm>   <lm>             307.      278.    314.
    ##  4 <tibble> <tibble> 004   <lm>   <lm>   <lm>             337.      297.    333.
    ##  5 <tibble> <tibble> 005   <lm>   <lm>   <lm>             366.      300.    325.
    ##  6 <tibble> <tibble> 006   <lm>   <lm>   <lm>             314.      281.    317.
    ##  7 <tibble> <tibble> 007   <lm>   <lm>   <lm>             354.      285.    303.
    ##  8 <tibble> <tibble> 008   <lm>   <lm>   <lm>             345.      294.    320.
    ##  9 <tibble> <tibble> 009   <lm>   <lm>   <lm>             327.      286.    319.
    ## 10 <tibble> <tibble> 010   <lm>   <lm>   <lm>             337.      288.    312.
    ## # … with 90 more rows, and abbreviated variable names ¹​rmse_model2,
    ## #   ²​rmse_model_fit
